tuto_R
…
Si vos donnes sont tidy et wide alors on obtient

# Data set 'tidy'
tidy.dat <- read_csv("../data/looks_tidy.csv")
head(tidy.dat)

# A tibble: 6 x 5
  id    strategy    attractiveness charisma           rating
  <chr> <chr>       <chr>          <chr>               <dbl>
1 ip58d Hard to get Attractive     Highly charismatic     86
2 mx86n Hard to get Attractive     Highly charismatic     91
3 wv72f Hard to get Attractive     Highly charismatic     89
4 tn34w Hard to get Attractive     Highly charismatic     89
5 tb10h Hard to get Attractive     Highly charismatic     80
6 re43s Hard to get Attractive     Highly charismatic     80

3. Describing the data

Decrire les donnes avec des chiffres

load the Data

Pour dcrire les donnes nous allons utiliser la fonction describe du package {psych} * Premirement importons les donnes de lexercice.

tuto.dat <- read_csv("../data/tuto_data.csv")

Puis on decrit les donnes

#Pour le dataset entier
describe(tuto.dat)

               vars  n  mean    sd median trimmed   mad min max range skew
id                1 80 40.50 23.24   40.5   40.50 29.65   1  80    79 0.00
age               2 80 15.62  1.27   15.5   15.53  0.74  14  18     4 0.46
sex*              3 80  1.50  0.50    1.5    1.50  0.74   1   2     1 0.00
condition_exp*    4 80  1.50  0.50    1.5    1.50  0.74   1   2     1 0.00
hi_salary         5 80  4.47  1.84    4.0    4.31  1.48   1  10     9 0.90
               kurtosis   se
id                -1.25 2.60
age               -0.74 0.14
sex*              -2.02 0.06
condition_exp*    -2.02 0.06
hi_salary          0.75 0.21
 [ reached 'max' / getOption("max.print") -- omitted 10 rows ]
…
